%YAML 1.1
%TAG !u! tag:unity3d.com,2011:
--- !u!21 &2100000
Material:
  serializedVersion: 8
  m_ObjectHideFlags: 0
  m_CorrespondingSourceObject: {fileID: 0}
  m_PrefabInstance: {fileID: 0}
  m_PrefabAsset: {fileID: 0}
  m_Name: ShoreTile
  m_Shader: {fileID: 4800000, guid: ac2bd3936e4e0ff4b81ea9f20d3206da, type: 3}
  m_ValidKeywords: []
  m_InvalidKeywords: []
  m_LightmapFlags: 1
  m_EnableInstancingVariants: 1
  m_DoubleSidedGI: 0
  m_CustomRenderQueue: -1
  stringTagMap: {}
  disabledShaderPasses: []
  m_SavedProperties:
    serializedVersion: 3
    m_TexEnvs:
    - _BumpMap:
        m_Texture: {fileID: 0}
        m_Scale: {x: 1, y: 1}
        m_Offset: {x: 0, y: 0}
    - _DetailAlbedoMap:
        m_Texture: {fileID: 0}
        m_Scale: {x: 1, y: 1}
        m_Offset: {x: 0, y: 0}
    - _DetailMask:
        m_Texture: {fileID: 0}
        m_Scale: {x: 1, y: 1}
        m_Offset: {x: 0, y: 0}
    - _DetailNormalMap:
        m_Texture: {fileID: 0}
        m_Scale: {x: 1, y: 1}
        m_Offset: {x: 0, y: 0}
    - _EmissionMap:
        m_Texture: {fileID: 0}
        m_Scale: {x: 1, y: 1}
        m_Offset: {x: 0, y: 0}
    - _FallofGradient:
        m_Texture: {fileID: 2800000, guid: 4130b9429150bec4ebf7396b605c3bea, type: 3}
        m_Scale: {x: 1, y: 1}
        m_Offset: {x: 0, y: 0}
    - _FalloffTexture:
        m_Texture: {fileID: 2800000, guid: 5228a04ef529d2641937cab585cc1a02, type: 3}
        m_Scale: {x: 1, y: 1}
        m_Offset: {x: 0, y: 0}
    - _MainTex:
        m_Texture: {fileID: 2800000, guid: 4d10d0b321c0d1c4eb4f0b82f268ed21, type: 3}
        m_Scale: {x: 3, y: 1}
        m_Offset: {x: 0, y: 0}
    - _MetallicGlossMap:
        m_Texture: {fileID: 0}
        m_Scale: {x: 1, y: 1}
        m_Offset: {x: 0, y: 0}
    - _NoiseA:
        m_Texture: {fileID: 2800000, guid: 8704aeacd8373c34ca93f6ee56ef3fab, type: 3}
        m_Scale: {x: 1, y: 1}
        m_Offset: {x: 0, y: 0}
    - _NoiseB:
        m_Texture: {fileID: 2800000, guid: 8704aeacd8373c34ca93f6ee56ef3fab, type: 3}
        m_Scale: {x: 1, y: 1}
        m_Offset: {x: 0, y: 0}
    - _OcclusionMap:
        m_Texture: {fileID: 0}
        m_Scale: {x: 1, y: 1}
        m_Offset: {x: 0, y: 0}
    - _ParallaxMap:
        m_Texture: {fileID: 0}
        m_Scale: {x: 1, y: 1}
        m_Offset: {x: 0, y: 0}
    - _ShoreTexture:
        m_Texture: {fileID: 2800000, guid: 4d10d0b321c0d1c4eb4f0b82f268ed21, type: 3}
        m_Scale: {x: 1, y: 1}
        m_Offset: {x: 0, y: 0}
    - _TextureSample0:
        m_Texture: {fileID: 2800000, guid: 4130b9429150bec4ebf7396b605c3bea, type: 3}
        m_Scale: {x: 1, y: 1}
        m_Offset: {x: 0, y: 0}
    - _noise:
        m_Texture: {fileID: 2800000, guid: 38f021290d87f034892dc2b3d522dce6, type: 3}
        m_Scale: {x: 1, y: 1}
        m_Offset: {x: 0, y: 0}
    - _texcoord:
        m_Texture: {fileID: 0}
        m_Scale: {x: 1, y: 1}
        m_Offset: {x: 0, y: 0}
    m_Ints: []
    m_Floats:
    - _BorderWidth: 1.02
    - _BumpScale: 1
    - _Cutoff: 0.474
    - _DetailNormalMapScale: 1
    - _DstBlend: 0
    - _Falloff: 2.21
    - _Float0: 0.02
    - _Float1: 5.11
    - _Glossiness: 0.5
    - _Metallic: 0
    - _Mode: 0
    - _NoiseAMaskClip: 0.08
    - _NoiseASpeed: 0.01
    - _NoiseBMaskClip: 4
    - _NoiseBSpeed: 0.08
    - _OcclusionStrength: 1
    - _Parallax: 0.02
    - _ShoreAnimSpeed: 0.3
    - _ShoreTile: 4
    - _SrcBlend: 1
    - _UVSec: 0
    - _ZWrite: 1
    - __dirty: 0
    m_Colors:
    - _Color: {r: 1, g: 1, b: 1, a: 1}
    - _EmissionColor: {r: 0, g: 0, b: 0, a: 1}
    - _FoamTint: {r: 0.3584906, g: 0.3584906, b: 0.3584906, a: 0}
    - _ShoreTile: {r: 4, g: 1, b: 0, a: 0}
    - _TileNoiseA: {r: 10, g: 0.1, b: 0, a: 0}
    - _TileNoiseB: {r: 10, g: 0.1, b: 0, a: 0}
    - _TintColor: {r: 0.990566, g: 0.990566, b: 0.990566, a: 1}
  m_BuildTextureStacks: []
