%YAML 1.1
%TAG !u! tag:unity3d.com,2011:
--- !u!21 &2100000
Material:
  serializedVersion: 8
  m_ObjectHideFlags: 0
  m_CorrespondingSourceObject: {fileID: 0}
  m_PrefabInstance: {fileID: 0}
  m_PrefabAsset: {fileID: 0}
  m_Name: ToonWater
  m_Shader: {fileID: 4800000, guid: c9c58cbe839e2394b8cdaba9d789f218, type: 3}
  m_ValidKeywords: []
  m_InvalidKeywords: []
  m_LightmapFlags: 4
  m_EnableInstancingVariants: 0
  m_DoubleSidedGI: 0
  m_CustomRenderQueue: 2000
  stringTagMap: {}
  disabledShaderPasses: []
  m_SavedProperties:
    serializedVersion: 3
    m_TexEnvs:
    - _Caustic:
        m_Texture: {fileID: 2800000, guid: 5be9816838ffd6947a3e309257b8e878, type: 3}
        m_Scale: {x: 15, y: 15}
        m_Offset: {x: 0, y: 0}
    - _Foam:
        m_Texture: {fileID: 2800000, guid: e7593cb33a54a41838649d167ae0e25d, type: 3}
        m_Scale: {x: 1, y: 1}
        m_Offset: {x: 0, y: 0}
    - _MainTex:
        m_Texture: {fileID: 0}
        m_Scale: {x: 1, y: 1}
        m_Offset: {x: 0, y: 0}
    - _NormalMap:
        m_Texture: {fileID: 2800000, guid: fe4a0f9e7aa80f940963cffff4229d3b, type: 3}
        m_Scale: {x: 5, y: 5}
        m_Offset: {x: 0, y: 0}
    - _TextureSample0:
        m_Texture: {fileID: 0}
        m_Scale: {x: 1, y: 1}
        m_Offset: {x: 0, y: 0}
    - _texcoord:
        m_Texture: {fileID: 0}
        m_Scale: {x: 1, y: 1}
        m_Offset: {x: 0, y: 0}
    m_Ints: []
    m_Floats:
    - _FoamSpeed: 0.3
    - _Foamdistance: 0.5
    - _FogDistance: 21.68
    - _Fresnel: 0
    - _InvFade: 1
    - _NormalPower: 10000
    - _Smoothness: 0.416
    - __dirty: 1
    m_Colors:
    - _FoamColor: {r: 1, g: 1, b: 1, a: 1}
    - _FogColor: {r: 1, g: 1, b: 1, a: 1}
    - _TintColor: {r: 0.5, g: 0.5, b: 0.5, a: 0.5}
    - _Water: {r: 0, g: 0.5729777, b: 0.6981132, a: 0.5019608}
    - _Wavesspeed: {r: 0.05, g: 0, b: -0.1, a: 0}
    - _WavesspeedXY: {r: -0.3, g: 0, b: 0, a: 0}
  m_BuildTextureStacks: []
