{
  "project_info": {
    "project_number": "750963932978",
    "project_id": "tom-way-home-58285",
    "storage_bucket": "tom-way-home-58285.appspot.com"
  },
  "client": [
    {
      "client_info": {
        "mobilesdk_app_id": "1:750963932978:android:04a3a6abc8ad9e79aba12b",
        "android_client_info": {
          "package_name": "tomwayhome.catmusicrunner"
        }
      },
      "oauth_client": [],
      "api_key": [
        {
          "current_key": "AIzaSyA8zf3OJj7z12MJJLymRnDi_mS36MTLJmk"
        }
      ],
      "services": {
        "appinvite_service": {
          "other_platform_oauth_client": []
        }
      }
    }
  ],
  "configuration_version": "1"
}