%YAML 1.1
%TAG !u! tag:unity3d.com,2011:
--- !u!21 &2100000
Material:
  serializedVersion: 8
  m_ObjectHideFlags: 0
  m_CorrespondingSourceObject: {fileID: 0}
  m_PrefabInstance: {fileID: 0}
  m_PrefabAsset: {fileID: 0}
  m_Name: SWS_IslandDemo_Material
  m_Shader: {fileID: 4800000, guid: 644d4419f6d30214892dd65158332ba7, type: 3}
  m_ValidKeywords:
  - _LIGHTING_ON
  - _USEINTERSECTIONFOAM_ON
  m_InvalidKeywords:
  - _ENABLEDEPTHTEXTURE_ON
  - _MACRONORMALS_ON
  - _SECONDARYFOAMALWAYSVISIBLE_ON
  - _TOGGLESWITCH0_ON
  - _WORLDSPACETILING_ON
  m_LightmapFlags: 0
  m_EnableInstancingVariants: 0
  m_DoubleSidedGI: 0
  m_CustomRenderQueue: 2296
  stringTagMap: {}
  disabledShaderPasses: []
  m_SavedProperties:
    serializedVersion: 3
    m_TexEnvs:
    - _ColorGradient:
        m_Texture: {fileID: 2800000, guid: 7e177bfc0bd15734bb6123a25bd6b7c6, type: 3}
        m_Scale: {x: 1, y: 1}
        m_Offset: {x: 0, y: 0}
    - _DummyTex:
        m_Texture: {fileID: 0}
        m_Scale: {x: 1, y: 1}
        m_Offset: {x: 0, y: 0}
    - _GradientTex:
        m_Texture: {fileID: 2800000, guid: 7e177bfc0bd15734bb6123a25bd6b7c6, type: 3}
        m_Scale: {x: 1, y: 1}
        m_Offset: {x: 0, y: 0}
    - _Normals:
        m_Texture: {fileID: 2800000, guid: 3a41e7c7976846a47a62be3520f418ed, type: 3}
        m_Scale: {x: 1, y: 1}
        m_Offset: {x: 0, y: 0}
    - _ReflectionTex:
        m_Texture: {fileID: 0}
        m_Scale: {x: 1, y: 1}
        m_Offset: {x: 0, y: 0}
    - _RefractionTex:
        m_Texture: {fileID: 0}
        m_Scale: {x: 1, y: 1}
        m_Offset: {x: 0, y: 0}
    - _Shadermap:
        m_Texture: {fileID: 2800000, guid: d0b3ad28564291843b4640a1af562877, type: 3}
        m_Scale: {x: 1, y: 1}
        m_Offset: {x: 0, y: 0}
    - _texcoord:
        m_Texture: {fileID: 0}
        m_Scale: {x: 1, y: 1}
        m_Offset: {x: 0, y: 0}
    m_Ints: []
    m_Floats:
    - _Cutoff: 0.5
    - _Depth: 22.4
    - _Depthdarkness: 0.5
    - _ENABLE_GRADIENT: 0
    - _ENABLE_SHADOWS: 0
    - _ENABLE_VC: 0
    - _EdgeFade: 0
    - _EnableDepthTexture: 1
    - _FoamDistortion: 0.61
    - _FoamOpacity: 0.29
    - _FoamSize: 0
    - _FoamSpeed: 0
    - _FoamTiling: -0.12
    - _Fresnelexponent: 0.66
    - _Glossiness: 0.936
    - _HighlightPanning: 1
    - _LIGHTING: 1
    - _MACRO_WAVES: 0
    - _MacroBlendDistance: 869
    - _Metallicness: 0
    - _NORMAL_MAP: 0
    - _NormalStrength: 0.254
    - _NormalTiling: 0.9
    - _Pixelate: 0
    - _RT_REFRACTION: 0
    - _ReflectionFresnel: 2.78
    - _ReflectionRefraction: 0.006
    - _ReflectionStrength: 0
    - _RefractionAmount: 0.017
    - _RimDistance: 0
    - _RimDistortion: 0.11
    - _RimSize: 13
    - _Rimfalloff: 0.3
    - _Rimtiling: 1.9500002
    - _SECONDARY_WAVES: 0
    - _SurfaceHighlight: 0.14
    - _SurfaceHighlightsDistortion: 0.94
    - _SurfaceHighlightsSpeed: 0.1
    - _SurfaceHightlighttiling: 0.050000004
    - _Surfacehightlightsize: 0
    - _Tessellation: 20
    - _Tiling: 0.74999994
    - _Transparency: 1
    - _USE_VC_INTERSECTION: 0
    - _Unlit: 0
    - _UseIntersectionFoam: 1
    - _UseIntersectionHighlight: 0
    - _WaveFoam: 0
    - _WaveHeight: 0.623
    - _WaveSize: 0.01
    - _Wavesspeed: 0.43
    - _Wavesstrength: 0
    - _Wavetint: -0.413
    - _Worldspacetiling: 1
    - __dirty: 1
    m_Colors:
    - _FresnelColor: {r: 0.78676474, g: 0.91186255, b: 1, a: 1}
    - _RimColor: {r: 1, g: 1, b: 1, a: 0.453}
    - _WaterColor: {r: 0, g: 0.6715338, b: 1, a: 0}
    - _WaterShallowColor: {r: 0.1273585, g: 1, b: 0.8172171, a: 0.4745098}
    - _WaveDirection: {r: 0, g: 0, b: 0, a: 0}
  m_BuildTextureStacks: []
