%YAML 1.1
%TAG !u! tag:unity3d.com,2011:
--- !u!21 &2100000
Material:
  serializedVersion: 8
  m_ObjectHideFlags: 0
  m_CorrespondingSourceObject: {fileID: 0}
  m_PrefabInstance: {fileID: 0}
  m_PrefabAsset: {fileID: 0}
  m_Name: Neck
  m_Shader: {fileID: 4800000, guid: 371dee73dabc89140878360402049bfc, type: 3}
  m_ValidKeywords:
  - _MK_ARTISTIC_ANIMATION_STUTTER
  - _MK_DETAIL_BLEND_MIX
  - _MK_ENVIRONMENT_REFLECTIONS_ADVANCED
  - _MK_LIGHT_RAMP
  - _MK_OUTLINE_DATA_UV7
  - _MK_OUTLINE_HULL_CLIP
  - _MK_SPECULAR_ISOTROPIC
  m_InvalidKeywords:
  - _MK_DIFFUSE_MODE_OREN_NAYAR
  - _MK_OUTLINE_BAKED
  - _MK_RECEIVE_SHADOWS
  - _MK_SPECULAR_MODE_ISOTROPIC
  - _RECEIVESHADOWS_ON
  m_LightmapFlags: 6
  m_EnableInstancingVariants: 0
  m_DoubleSidedGI: 0
  m_CustomRenderQueue: 2000
  stringTagMap:
    IGNOREPROJECTOR: False
    RenderType: Opaque
  disabledShaderPasses: []
  m_SavedProperties:
    serializedVersion: 3
    m_TexEnvs:
    - _AlbedoMap:
        m_Texture: {fileID: 0}
        m_Scale: {x: 1, y: 1}
        m_Offset: {x: 0, y: 0}
    - _BaseMap:
        m_Texture: {fileID: 0}
        m_Scale: {x: 1, y: 1}
        m_Offset: {x: 0, y: 0}
    - _BumpMap:
        m_Texture: {fileID: 0}
        m_Scale: {x: 1, y: 1}
        m_Offset: {x: 0, y: 0}
    - _DetailMap:
        m_Texture: {fileID: 0}
        m_Scale: {x: 1, y: 1}
        m_Offset: {x: 0, y: 0}
    - _DetailNormalMap:
        m_Texture: {fileID: 0}
        m_Scale: {x: 1, y: 1}
        m_Offset: {x: 0, y: 0}
    - _DiffuseRamp:
        m_Texture: {fileID: 2800000, guid: d7c3d340235cfd64fbe9468fd8dc1384, type: 3}
        m_Scale: {x: 1, y: 1}
        m_Offset: {x: 0, y: 0}
    - _DissolveBorderRamp:
        m_Texture: {fileID: 0}
        m_Scale: {x: 1, y: 1}
        m_Offset: {x: 0, y: 0}
    - _DissolveMap:
        m_Texture: {fileID: 0}
        m_Scale: {x: 1, y: 1}
        m_Offset: {x: 0, y: 0}
    - _DissolveRamp:
        m_Texture: {fileID: 0}
        m_Scale: {x: 1, y: 1}
        m_Offset: {x: 0, y: 0}
    - _DrawnMap:
        m_Texture: {fileID: 0}
        m_Scale: {x: 1, y: 1}
        m_Offset: {x: 0, y: 0}
    - _EmissionMap:
        m_Texture: {fileID: 0}
        m_Scale: {x: 1, y: 1}
        m_Offset: {x: 0, y: 0}
    - _GoochBrightMap:
        m_Texture: {fileID: 0}
        m_Scale: {x: 1, y: 1}
        m_Offset: {x: 0, y: 0}
    - _GoochDarkMap:
        m_Texture: {fileID: 0}
        m_Scale: {x: 1, y: 1}
        m_Offset: {x: 0, y: 0}
    - _GoochRamp:
        m_Texture: {fileID: 0}
        m_Scale: {x: 1, y: 1}
        m_Offset: {x: 0, y: 0}
    - _HatchingBrightMap:
        m_Texture: {fileID: 0}
        m_Scale: {x: 1, y: 1}
        m_Offset: {x: 0, y: 0}
    - _HatchingDarkMap:
        m_Texture: {fileID: 0}
        m_Scale: {x: 1, y: 1}
        m_Offset: {x: 0, y: 0}
    - _HeightMap:
        m_Texture: {fileID: 0}
        m_Scale: {x: 1, y: 1}
        m_Offset: {x: 0, y: 0}
    - _IridescenceRamp:
        m_Texture: {fileID: 0}
        m_Scale: {x: 1, y: 1}
        m_Offset: {x: 0, y: 0}
    - _LightRamp:
        m_Texture: {fileID: 0}
        m_Scale: {x: 1, y: 1}
        m_Offset: {x: 0, y: 0}
    - _LightTransmissionRamp:
        m_Texture: {fileID: 0}
        m_Scale: {x: 1, y: 1}
        m_Offset: {x: 0, y: 0}
    - _MainTex:
        m_Texture: {fileID: 0}
        m_Scale: {x: 1, y: 1}
        m_Offset: {x: 0, y: 0}
    - _MetallicGlossMap:
        m_Texture: {fileID: 0}
        m_Scale: {x: 1, y: 1}
        m_Offset: {x: 0, y: 0}
    - _MetallicMap:
        m_Texture: {fileID: 0}
        m_Scale: {x: 1, y: 1}
        m_Offset: {x: 0, y: 0}
    - _NoiseMap:
        m_Texture: {fileID: 2800000, guid: b376780a16f30e141824d5baae6b8f5e, type: 3}
        m_Scale: {x: 1, y: 1}
        m_Offset: {x: 0, y: 0}
    - _NormalMap:
        m_Texture: {fileID: 0}
        m_Scale: {x: 1, y: 1}
        m_Offset: {x: 0, y: 0}
    - _OcclusionMap:
        m_Texture: {fileID: 0}
        m_Scale: {x: 1, y: 1}
        m_Offset: {x: 0, y: 0}
    - _OutlineMap:
        m_Texture: {fileID: 0}
        m_Scale: {x: 1, y: 1}
        m_Offset: {x: 0, y: 0}
    - _RimRamp:
        m_Texture: {fileID: 0}
        m_Scale: {x: 1, y: 1}
        m_Offset: {x: 0, y: 0}
    - _RoughnessMap:
        m_Texture: {fileID: 0}
        m_Scale: {x: 1, y: 1}
        m_Offset: {x: 0, y: 0}
    - _SSSMap:
        m_Texture: {fileID: 0}
        m_Scale: {x: 1, y: 1}
        m_Offset: {x: 0, y: 0}
    - _SketchMap:
        m_Texture: {fileID: 0}
        m_Scale: {x: 1, y: 1}
        m_Offset: {x: 0, y: 0}
    - _SpecGlossMap:
        m_Texture: {fileID: 0}
        m_Scale: {x: 1, y: 1}
        m_Offset: {x: 0, y: 0}
    - _SpecularMap:
        m_Texture: {fileID: 0}
        m_Scale: {x: 1, y: 1}
        m_Offset: {x: 0, y: 0}
    - _SpecularRamp:
        m_Texture: {fileID: 2800000, guid: d7c3d340235cfd64fbe9468fd8dc1384, type: 3}
        m_Scale: {x: 1, y: 1}
        m_Offset: {x: 0, y: 0}
    - _ThicknessMap:
        m_Texture: {fileID: 0}
        m_Scale: {x: 1, y: 1}
        m_Offset: {x: 0, y: 0}
    - _ThresholdMap:
        m_Texture: {fileID: 0}
        m_Scale: {x: 1, y: 1}
        m_Offset: {x: 0, y: 0}
    - _VertexAnimationMap:
        m_Texture: {fileID: 0}
        m_Scale: {x: 1, y: 1}
        m_Offset: {x: 0, y: 0}
    m_Ints: []
    m_Floats:
    - _AdvancedTab: 1
    - _AlbedoMapIntensity: 1
    - _AlphaClip: 0
    - _AlphaClipping: 0
    - _AlphaCutoff: 0.5
    - _Anisotropy: 0
    - _Artistic: 0
    - _ArtisticFrequency: 1
    - _ArtisticProjection: 0
    - _ArtisticStyle: 0
    - _Blend: 0
    - _BlendDst: 0
    - _BlendDstAlpha: 0
    - _BlendMode: 0
    - _BlendSrc: 1
    - _BlendSrcAlpha: 1
    - _Brightness: 1
    - _BumpScale: 1
    - _CSBMode: 0
    - _ColorGrading: 0
    - _Contrast: 1
    - _Cull: 2
    - _Cutoff: 0.5
    - _DetailBlend: 0.5
    - _DetailMapBlendMode: 0
    - _DetailMix: 0.5
    - _DetailNormalMapIntensity: 1
    - _DetailNormalMapScale: 1
    - _Diffuse: 0
    - _DiffuseMode: 1
    - _DiffuseSmoothness: 0
    - _DiffuseThresholdOffset: 0.25
    - _Dissolve: 0
    - _DissolveAmount: 0.5
    - _DissolveBorderSize: 0.25
    - _DissolveMapScale: 1
    - _DissolveMode: 0
    - _DissolveRampSize: 0.25
    - _DrawnClampMax: 1
    - _DrawnClampMin: 0
    - _DrawnMapScale: 1
    - _DstBlend: 0
    - _EnvironmentReflections: 2
    - _FresnelHighlights: 0
    - _GlossMapScale: 0
    - _Glossiness: 0
    - _GlossyReflections: 0
    - _GoochRampIntensity: 0.5
    - _HatchingMapScale: 1
    - _HeightMapScale: 0.5
    - _IndirectFade: 1
    - _Initialized: 1
    - _InputTab: 1
    - _Iridescence: 0
    - _IridescenceSize: 1
    - _IridescenceSmoothness: 0.5
    - _IridescenceThresholdOffset: 0.25
    - _Light: 3
    - _LightBands: 4
    - _LightBandsScale: 0.5
    - _LightCuts: 3
    - _LightCutsScale: 0.5
    - _LightStyle: 0
    - _LightThreshold: 0.33
    - _LightTransmission: 0
    - _LightTransmissionDistortion: 0.25
    - _LightTransmissionIntensity: 1
    - _LightTransmissionSmoothness: 0.5
    - _LightTransmissionThresholdOffset: 0.25
    - _Metallic: 0.8
    - _NormalMapIntensity: 1
    - _NormalMapScale: 1
    - _OcclusionMapIntensity: 1
    - _OcclusionMapScale: 1
    - _OcclusionStrength: 1
    - _OptionsTab: 0
    - _Outline: 3
    - _OutlineData: 1
    - _OutlineFadeMax: 2
    - _OutlineFadeMin: 0.25
    - _OutlineMode: 1
    - _OutlineNoise: 0
    - _OutlineSize: 3.5
    - _OutlineTab: 1
    - _Parallax: 0.05
    - _QueueOffset: 0
    - _ReceiveShadows: 1
    - _RenderFace: 2
    - _RenderPriority: 0
    - _Rim: 0
    - _RimSize: 0.65
    - _RimSmoothness: 0
    - _RimStyle: 0
    - _RimThresholdOffset: 0.25
    - _Roughness: 0.5
    - _SSSDistortion: 0.25
    - _SSSSmoothness: 0
    - _Saturation: 1
    - _SketchMapScale: 1
    - _Smoothness: 0.85
    - _SmoothnessTextureChannel: 0
    - _Specular: 1
    - _SpecularHighlights: 1
    - _SpecularIntensity: 1.5
    - _SpecularMode: 1
    - _SpecularSmoothness: 0
    - _SpecularThresholdOffset: 0.25
    - _SrcBlend: 1
    - _Stencil: 1
    - _StencilComp: 8
    - _StencilFail: 0
    - _StencilMode: 1
    - _StencilPass: 0
    - _StencilReadMask: 255
    - _StencilRef: 0
    - _StencilWriteMask: 255
    - _StencilZFail: 0
    - _StylizeTab: 1
    - _Surface: 0
    - _SurfaceType: 0
    - _ThresholdMapScale: 1
    - _VertexAnimation: 0
    - _VertexAnimationIntensity: 0.05
    - _VertexAnimationStutter: 0
    - _Workflow: 0
    - _WorkflowMode: 1
    - _WrappedLighting: 0
    - _ZTest: 4
    - _ZWrite: 1
    m_Colors:
    - _AlbedoColor: {r: 0.49056602, g: 0.49056602, b: 0.49056602, a: 1}
    - _BaseColor: {r: 1, g: 1, b: 1, a: 1}
    - _Color: {r: 0.49056596, g: 0.49056596, b: 0.49056596, a: 1}
    - _DetailColor: {r: 1, g: 1, b: 1, a: 1}
    - _DissolveBorderColor: {r: 1, g: 1, b: 1, a: 0.5}
    - _DissolveColor: {r: 1, g: 1, b: 1, a: 0.5}
    - _EmissionColor: {r: 0, g: 0, b: 0, a: 1}
    - _GoochBrightColor: {r: 1, g: 1, b: 1, a: 1}
    - _GoochDarkColor: {r: 0, g: 0, b: 0, a: 1}
    - _IridescenceColor: {r: 1, g: 1, b: 1, a: 0.5}
    - _LightTransmissionColor: {r: 1, g: 0.65, b: 0, a: 1}
    - _OutlineColor: {r: 0, g: 0, b: 0, a: 1}
    - _RimBrightColor: {r: 1, g: 1, b: 1, a: 1}
    - _RimColor: {r: 1, g: 1, b: 1, a: 1}
    - _RimColorBright: {r: 1, g: 1, b: 1, a: 1}
    - _RimColorDark: {r: 0, g: 0, b: 0, a: 1}
    - _RimDarkColor: {r: 0, g: 0, b: 0, a: 1}
    - _SSSColor: {r: 1, g: 0.65, b: 0, a: 1}
    - _SpecColor: {r: 0.19999996, g: 0.19999996, b: 0.19999996, a: 1}
    - _SpecularColor: {r: 0.19999993, g: 0.19999993, b: 0.19999993, a: 1}
    - _VertexAnimationFrequency: {r: 2.5, g: 2.5, b: 2.5, a: 1}
  m_BuildTextureStacks: []
--- !u!114 &4115051598924717490
MonoBehaviour:
  m_ObjectHideFlags: 11
  m_CorrespondingSourceObject: {fileID: 0}
  m_PrefabInstance: {fileID: 0}
  m_PrefabAsset: {fileID: 0}
  m_GameObject: {fileID: 0}
  m_Enabled: 1
  m_EditorHideFlags: 0
  m_Script: {fileID: 11500000, guid: d0353a89b1f911e48b9e16bdc9f2e058, type: 3}
  m_Name: 
  m_EditorClassIdentifier: 
  version: 1
