%YAML 1.1
%TAG !u! tag:unity3d.com,2011:
--- !u!21 &2100000
Material:
  serializedVersion: 8
  m_ObjectHideFlags: 0
  m_CorrespondingSourceObject: {fileID: 0}
  m_PrefabInstance: {fileID: 0}
  m_PrefabAsset: {fileID: 0}
  m_Name: SWS_PondDemo_Material
  m_Shader: {fileID: 0}
  m_ValidKeywords: []
  m_InvalidKeywords:
  - _ENABLEDEPTHTEXTURE_ON
  - _ENABLE_VC_ON
  - _KEYWORD0_ON
  - _NORMAL_MAP_ON
  - _PIXELATE_ON
  - _SECONDARYFOAMALWAYSVISIBLE_ON
  - _WORLDSPACETILING_ON
  m_LightmapFlags: 0
  m_EnableInstancingVariants: 0
  m_DoubleSidedGI: 0
  m_CustomRenderQueue: 3000
  stringTagMap: {}
  disabledShaderPasses: []
  m_SavedProperties:
    serializedVersion: 3
    m_TexEnvs:
    - _ColorGradient:
        m_Texture: {fileID: 2800000, guid: 438c3545ac6a3044abbf188f35dec392, type: 3}
        m_Scale: {x: 1, y: 1}
        m_Offset: {x: 0, y: 0}
    - _DepthTex:
        m_Texture: {fileID: 0}
        m_Scale: {x: 1, y: 1}
        m_Offset: {x: 0, y: 0}
    - _DummyTex:
        m_Texture: {fileID: 0}
        m_Scale: {x: 1, y: 1}
        m_Offset: {x: 0, y: 0}
    - _GradientTex:
        m_Texture: {fileID: 0}
        m_Scale: {x: 1, y: 1}
        m_Offset: {x: 0, y: 0}
    - _Normals:
        m_Texture: {fileID: 2800000, guid: b24e50a74c826ca478a68acf3efd5f6b, type: 3}
        m_Scale: {x: 1, y: 1}
        m_Offset: {x: 0, y: 0}
    - _Reflection:
        m_Texture: {fileID: 0}
        m_Scale: {x: 1, y: 1}
        m_Offset: {x: 0, y: 0}
    - _ReflectionTex:
        m_Texture: {fileID: 0}
        m_Scale: {x: 1, y: 1}
        m_Offset: {x: 0, y: 0}
    - _RefractionTex:
        m_Texture: {fileID: 0}
        m_Scale: {x: 1, y: 1}
        m_Offset: {x: 0, y: 0}
    - _Shadermap:
        m_Texture: {fileID: 2800000, guid: ed94ba38312aebc42be9f8e30aede540, type: 3}
        m_Scale: {x: 1, y: 1}
        m_Offset: {x: 0, y: 0}
    - _texcoord:
        m_Texture: {fileID: 0}
        m_Scale: {x: 1, y: 1}
        m_Offset: {x: 0, y: 0}
    m_Ints: []
    m_Floats:
    - _Cutoff: 0.5
    - _Depth: 5.2
    - _Depthdarkness: 0
    - _ENABLE_GRADIENT: 0
    - _ENABLE_NORMALS: 1
    - _ENABLE_SHADOWS: 0
    - _ENABLE_VC: 1
    - _EdgeFade: 0.84
    - _EnableDepthTexture: 1
    - _EnableVertexColors: 1
    - _Float3: 0.85
    - _FoamDistortion: 0
    - _FoamOpacity: 0.03
    - _FoamSize: 0
    - _FoamSpeed: 0
    - _FoamTiling: 0.20000008
    - _Fresnelexponent: 0
    - _Glossiness: 0.96
    - _HighlightPanning: 0
    - _IntersectionDistortion: 0.1
    - _Keyword0: 1
    - _LIGHTING: 0
    - _MACRO_WAVES: 0
    - _MacroBlendDistance: 0
    - _MaskClipValue: 0.5
    - _Metallicness: 0
    - _NORMAL_MAP: 1
    - _NormalStrength: 0.368
    - _NormalTiling: 0.9
    - _Pixelate: 0
    - _RT_REFRACTION: 0
    - _Reflection: 0
    - _ReflectionFresnel: 0
    - _ReflectionRefraction: 0
    - _ReflectionStrength: 0
    - _RefractionAmount: 0
    - _RimContrast: 1
    - _RimDistance: 1.13
    - _RimDistortion: 0
    - _RimSize: 2
    - _Rimfalloff: 8.2
    - _Rimtiling: 0.3299995
    - _SECONDARY_WAVES: 0
    - _SurfaceHighlight: 0
    - _SurfaceHighlightsDistortion: 0.77
    - _SurfaceHighlightsSpeed: 0.067
    - _SurfaceHightlighttiling: 0.15
    - _Surfacehightlightsize: 0
    - _Tessellation: 20
    - _Tiling: 0.7500001
    - _Transparency: 0.443
    - _USE_VC_INTERSECTION: 0
    - _Unlit: 0
    - _UseIntersectionFoam: 0
    - _UseIntersectionHighlight: 1
    - _WaveFoam: 0
    - _WaveHeight: 0.104
    - _WaveSize: 0.9899999
    - _Wavefoam: 1
    - _Wavesspeed: 1.26
    - _Wavesstrength: 0.093
    - _Wavetint: -0.085
    - _Worldspacetiling: 1
    - __dirty: 0
    m_Colors:
    - _FresnelColor: {r: 0, g: 0, b: 0, a: 0}
    - _RimColor: {r: 1, g: 1, b: 1, a: 0.134}
    - _WaterColor: {r: 0, g: 0.6275863, b: 1, a: 0}
    - _WaterShallowColor: {r: 0, g: 0.91724133, b: 1, a: 0.609}
    - _WaveDirection: {r: 0.01, g: 0, b: 0.69, a: 0}
  m_BuildTextureStacks: []
