%YAML 1.1
%TAG !u! tag:unity3d.com,2011:
--- !u!21 &2100000
Material:
  serializedVersion: 8
  m_ObjectHideFlags: 0
  m_CorrespondingSourceObject: {fileID: 0}
  m_PrefabInstance: {fileID: 0}
  m_PrefabAsset: {fileID: 0}
  m_Name: Room_M 2
  m_Shader: {fileID: 4800000, guid: bee44b4a58655ee4cbff107302a3e131, type: 3}
  m_ValidKeywords:
  - DR_CEL_EXTRA_ON
  - DR_GRADIENT_ON
  - DR_OUTLINE_ON
  - DR_RIM_ON
  - DR_SPECULAR_ON
  - DR_VERTEX_COLORS_ON
  - _CELPRIMARYMODE_SINGLE
  - _EMISSION
  - _TEXTUREBLENDINGMODE_MULTIPLY
  - _UNITYSHADOWMODE_MULTIPLY
  - _UNITYSHADOW_OCCLUSION
  m_InvalidKeywords:
  - _FLAT_SHADOWS_ENABLED
  - _FLAT_SPECULAR_ENABLED
  m_LightmapFlags: 2
  m_EnableInstancingVariants: 0
  m_DoubleSidedGI: 0
  m_CustomRenderQueue: 2000
  stringTagMap:
    RenderType: Opaque
  disabledShaderPasses: []
  m_SavedProperties:
    serializedVersion: 3
    m_TexEnvs:
    - _BaseMap:
        m_Texture: {fileID: 2800000, guid: cb4cfd27fcd9b0c4fbdb19fe83014137, type: 3}
        m_Scale: {x: 1, y: 1}
        m_Offset: {x: 0, y: 0}
    - _BumpMap:
        m_Texture: {fileID: 0}
        m_Scale: {x: 1, y: 1}
        m_Offset: {x: 0, y: 0}
    - _CelCurveTexture:
        m_Texture: {fileID: 0}
        m_Scale: {x: 1, y: 1}
        m_Offset: {x: 0, y: 0}
    - _CelStepTexture:
        m_Texture: {fileID: 0}
        m_Scale: {x: 1, y: 1}
        m_Offset: {x: 0, y: 0}
    - _DetailAlbedoMap:
        m_Texture: {fileID: 0}
        m_Scale: {x: 1, y: 1}
        m_Offset: {x: 0, y: 0}
    - _DetailMask:
        m_Texture: {fileID: 0}
        m_Scale: {x: 1, y: 1}
        m_Offset: {x: 0, y: 0}
    - _DetailNormalMap:
        m_Texture: {fileID: 0}
        m_Scale: {x: 1, y: 1}
        m_Offset: {x: 0, y: 0}
    - _EmissionMap:
        m_Texture: {fileID: 0}
        m_Scale: {x: 1, y: 1}
        m_Offset: {x: 0, y: 0}
    - _MainTex:
        m_Texture: {fileID: 0}
        m_Scale: {x: 1, y: 1}
        m_Offset: {x: 0, y: 0}
    - _MetallicGlossMap:
        m_Texture: {fileID: 0}
        m_Scale: {x: 1, y: 1}
        m_Offset: {x: 0, y: 0}
    - _OcclusionMap:
        m_Texture: {fileID: 0}
        m_Scale: {x: 1, y: 1}
        m_Offset: {x: 0, y: 0}
    - _ParallaxMap:
        m_Texture: {fileID: 0}
        m_Scale: {x: 1, y: 1}
        m_Offset: {x: 0, y: 0}
    m_Ints: []
    m_Floats:
    - _AlphaClip: 0
    - _Blend: 0
    - _BumpScale: 1
    - _CameraDistanceImpact: 1
    - _CelExtraEnabled: 1
    - _CelNumSteps: 5
    - _CelPrimaryEnabled: 0
    - _CelPrimaryMode: 1
    - _Cull: 2
    - _Cutoff: 0.5
    - _DetailNormalMapScale: 1
    - _DstBlend: 0
    - _FlatRimAmount: 0.5
    - _FlatRimEdgeSmoothness: 0
    - _FlatRimEnabled: 1
    - _FlatRimLightAlign: 1
    - _FlatRimSize: 0
    - _FlatShadowsEnabled: 1
    - _FlatSmoothness: 0.362
    - _FlatSpecularEdgeSmoothness: 1
    - _FlatSpecularEnabled: 1
    - _FlatSpecularSize: 1
    - _FlatSpecularSmoothness: 0.5
    - _Flatness: 1
    - _FlatnessExtra: 1
    - _FlatnessSecondary: 1
    - _GlossMapScale: 1
    - _Glossiness: 0
    - _GlossyReflections: 1
    - _GradientAngle: 360
    - _GradientCenterX: 2.61
    - _GradientCenterY: -2.28
    - _GradientEnabled: 1
    - _GradientEnd: 0.55
    - _GradientSize: 9.51
    - _GradientStart: 1.17
    - _LightContribution: 1
    - _LightFalloffSize: 0.509
    - _LightmapDirectionPitch: 50
    - _LightmapDirectionYaw: 276
    - _Metallic: 0
    - _Mode: 0
    - _OcclusionStrength: 1
    - _OutlineDepthOffset: 0
    - _OutlineEnabled: 1
    - _OutlineScale: 1
    - _OutlineWidth: 1
    - _OverrideLightmapDir: 0
    - _OverrideShadows: 1
    - _OverrideShadowsEnabled: 1
    - _Parallax: 0.02
    - _QueueOffset: 0
    - _RimEnabled: 1
    - _SecondaryColor: 1
    - _SecondaryColorEnabled: 1
    - _SelfShadingSize: 0.23
    - _SelfShadingSizeExtra: 0
    - _ShadowEdgeSize: 0
    - _ShadowEdgeSizeExtra: 0
    - _ShadowEdgeSmoothness: 0.071
    - _ShadowFalloff: 0.01
    - _SmoothnessTextureChannel: 0
    - _SpecularEnabled: 1
    - _SpecularHighlights: 1
    - _SrcBlend: 1
    - _Surface: 0
    - _TextureBlendingMode: 0
    - _TextureImpact: 1
    - _UVSec: 0
    - _UnityShadowMode: 1
    - _UnityShadowOcclusion: 1
    - _UnityShadowPower: 0.22
    - _UnityShadowSharpness: 10
    - _VertexColorsEnabled: 1
    - _ZWrite: 1
    m_Colors:
    - _BaseColor: {r: 0.8301887, g: 0.8301887, b: 0.8301887, a: 1}
    - _Color: {r: 0.8490566, g: 0.18823424, b: 0.18823424, a: 1}
    - _ColorCelShadow: {r: 0.49056602, g: 0.34478462, b: 0.4476891, a: 1}
    - _ColorDim: {r: 0, g: 0, b: 0, a: 0.85}
    - _ColorDimCurve: {r: 0.85, g: 0.85, b: 0.85, a: 0.85}
    - _ColorDimExtra: {r: 1, g: 1, b: 1, a: 0.85}
    - _ColorDimSteps: {r: 0.4811321, g: 0.1764863, b: 0.111205064, a: 0.85}
    - _ColorGradient: {r: 0.754717, g: 0.754717, b: 0.754717, a: 1}
    - _ColorSecondary: {r: 1, g: 0.55879205, b: 0, a: 1}
    - _ColorShadow: {r: 0.5, g: 0.5, b: 0.5, a: 1}
    - _ColorShadows: {r: 0.5471698, g: 0.37346402, b: 0.26584196, a: 1}
    - _EmissionColor: {r: 0.4811321, g: 0.4811321, b: 0.4811321, a: 1}
    - _FlatRimColor: {r: 0, g: 0, b: 0, a: 1}
    - _FlatSpecularColor: {r: 1, g: 1, b: 1, a: 1}
    - _LightmapDirection: {r: -0.72024274, g: 0.17364822, b: 0.6716373, a: 0}
    - _OutlineColor: {r: 0.31216326, g: 0.19157174, b: 0.3301887, a: 1}
    - _UnityShadowColor: {r: 1, g: 1, b: 1, a: 1}
  m_BuildTextureStacks: []
