%YAML 1.1
%TAG !u! tag:unity3d.com,2011:
--- !u!21 &2100000
Material:
  serializedVersion: 8
  m_ObjectHideFlags: 0
  m_CorrespondingSourceObject: {fileID: 0}
  m_PrefabInstance: {fileID: 0}
  m_PrefabAsset: {fileID: 0}
  m_Name: Shadow
  m_Shader: {fileID: 200, guid: 0000000000000000f000000000000000, type: 0}
  m_ValidKeywords: []
  m_InvalidKeywords:
  - _ALPHACLIPPING_ON
  - _MK_ALBEDO_MAP
  - _MK_ALPHA_CLIPPING
  - _MK_ARTISTIC_ANIMATION_STUTTER
  - _MK_BLEND_ADDITIVE
  - _MK_DETAIL_BLEND_MIX
  - _MK_ENVIRONMENT_REFLECTIONS_ADVANCED
  - _MK_RECEIVE_SHADOWS
  - _MK_SURFACE_TYPE_TRANSPARENT
  - _MK_WRAPPED_DIFFUSE
  - _RECEIVESHADOWS_ON
  - _WRAPPEDLIGHTING_ON
  m_LightmapFlags: 1
  m_EnableInstancingVariants: 1
  m_DoubleSidedGI: 0
  m_CustomRenderQueue: -1
  stringTagMap:
    IGNOREPROJECTOR: true
  disabledShaderPasses:
  - SHADOWCASTER
  m_SavedProperties:
    serializedVersion: 3
    m_TexEnvs:
    - _AlbedoMap:
        m_Texture: {fileID: 2800000, guid: 699c5ccbeeecf4c40af52386ffa2c0e3, type: 3}
        m_Scale: {x: 30, y: 1}
        m_Offset: {x: 0, y: 0}
    - _AlphaTex:
        m_Texture: {fileID: 2800000, guid: dd4bb2601a09b4ff2989d72d668103f0, type: 3}
        m_Scale: {x: 1, y: 1}
        m_Offset: {x: 0, y: 0}
    - _BumpMap:
        m_Texture: {fileID: 0}
        m_Scale: {x: 1, y: 1}
        m_Offset: {x: 0, y: 0}
    - _DetailAlbedoMap:
        m_Texture: {fileID: 0}
        m_Scale: {x: 1, y: 1}
        m_Offset: {x: 0, y: 0}
    - _DetailMap:
        m_Texture: {fileID: 0}
        m_Scale: {x: 1, y: 1}
        m_Offset: {x: 0, y: 0}
    - _DetailMask:
        m_Texture: {fileID: 0}
        m_Scale: {x: 1, y: 1}
        m_Offset: {x: 0, y: 0}
    - _DetailNormalMap:
        m_Texture: {fileID: 0}
        m_Scale: {x: 1, y: 1}
        m_Offset: {x: 0, y: 0}
    - _DiffuseRamp:
        m_Texture: {fileID: 0}
        m_Scale: {x: 1, y: 1}
        m_Offset: {x: 0, y: 0}
    - _DissolveBorderRamp:
        m_Texture: {fileID: 0}
        m_Scale: {x: 1, y: 1}
        m_Offset: {x: 0, y: 0}
    - _DissolveMap:
        m_Texture: {fileID: 0}
        m_Scale: {x: 1, y: 1}
        m_Offset: {x: 0, y: 0}
    - _DrawnMap:
        m_Texture: {fileID: 0}
        m_Scale: {x: 1, y: 1}
        m_Offset: {x: 0, y: 0}
    - _EmissionMap:
        m_Texture: {fileID: 0}
        m_Scale: {x: 1, y: 1}
        m_Offset: {x: 0, y: 0}
    - _GoochBrightMap:
        m_Texture: {fileID: 0}
        m_Scale: {x: 1, y: 1}
        m_Offset: {x: 0, y: 0}
    - _GoochDarkMap:
        m_Texture: {fileID: 0}
        m_Scale: {x: 1, y: 1}
        m_Offset: {x: 0, y: 0}
    - _GoochRamp:
        m_Texture: {fileID: 0}
        m_Scale: {x: 1, y: 1}
        m_Offset: {x: 0, y: 0}
    - _HatchingBrightMap:
        m_Texture: {fileID: 0}
        m_Scale: {x: 1, y: 1}
        m_Offset: {x: 0, y: 0}
    - _HatchingDarkMap:
        m_Texture: {fileID: 0}
        m_Scale: {x: 1, y: 1}
        m_Offset: {x: 0, y: 0}
    - _HeightMap:
        m_Texture: {fileID: 0}
        m_Scale: {x: 1, y: 1}
        m_Offset: {x: 0, y: 0}
    - _IridescenceRamp:
        m_Texture: {fileID: 0}
        m_Scale: {x: 1, y: 1}
        m_Offset: {x: 0, y: 0}
    - _LightTransmissionRamp:
        m_Texture: {fileID: 0}
        m_Scale: {x: 1, y: 1}
        m_Offset: {x: 0, y: 0}
    - _MainTex:
        m_Texture: {fileID: 2800000, guid: 699c5ccbeeecf4c40af52386ffa2c0e3, type: 3}
        m_Scale: {x: 30, y: 1}
        m_Offset: {x: 0, y: 0}
    - _MainTex2:
        m_Texture: {fileID: 0}
        m_Scale: {x: 1, y: 0.9}
        m_Offset: {x: 0, y: 0}
    - _MetallicGlossMap:
        m_Texture: {fileID: 0}
        m_Scale: {x: 1, y: 1}
        m_Offset: {x: 0, y: 0}
    - _MetallicMap:
        m_Texture: {fileID: 0}
        m_Scale: {x: 1, y: 1}
        m_Offset: {x: 0, y: 0}
    - _NoiseMap:
        m_Texture: {fileID: 2800000, guid: b376780a16f30e141824d5baae6b8f5e, type: 3}
        m_Scale: {x: 1, y: 1}
        m_Offset: {x: 0, y: 0}
    - _NormalMap:
        m_Texture: {fileID: 0}
        m_Scale: {x: 1, y: 1}
        m_Offset: {x: 0, y: 0}
    - _OcclusionMap:
        m_Texture: {fileID: 0}
        m_Scale: {x: 1, y: 1}
        m_Offset: {x: 0, y: 0}
    - _OutlineMap:
        m_Texture: {fileID: 0}
        m_Scale: {x: 1, y: 1}
        m_Offset: {x: 0, y: 0}
    - _ParallaxMap:
        m_Texture: {fileID: 0}
        m_Scale: {x: 1, y: 1}
        m_Offset: {x: 0, y: 0}
    - _RefractionDistortionMap:
        m_Texture: {fileID: 0}
        m_Scale: {x: 1, y: 1}
        m_Offset: {x: 0, y: 0}
    - _RimRamp:
        m_Texture: {fileID: 0}
        m_Scale: {x: 1, y: 1}
        m_Offset: {x: 0, y: 0}
    - _RoughnessMap:
        m_Texture: {fileID: 0}
        m_Scale: {x: 1, y: 1}
        m_Offset: {x: 0, y: 0}
    - _SketchMap:
        m_Texture: {fileID: 0}
        m_Scale: {x: 1, y: 1}
        m_Offset: {x: 0, y: 0}
    - _SpecularMap:
        m_Texture: {fileID: 0}
        m_Scale: {x: 1, y: 1}
        m_Offset: {x: 0, y: 0}
    - _SpecularRamp:
        m_Texture: {fileID: 0}
        m_Scale: {x: 1, y: 1}
        m_Offset: {x: 0, y: 0}
    - _ThicknessMap:
        m_Texture: {fileID: 0}
        m_Scale: {x: 1, y: 1}
        m_Offset: {x: 0, y: 0}
    - _ThresholdMap:
        m_Texture: {fileID: 0}
        m_Scale: {x: 1, y: 1}
        m_Offset: {x: 0, y: 0}
    - _VertexAnimationMap:
        m_Texture: {fileID: 0}
        m_Scale: {x: 1, y: 1}
        m_Offset: {x: 0, y: 0}
    m_Ints: []
    m_Floats:
    - _AdvancedTab: 1
    - _AlbedoMapIntensity: 1
    - _AlphaClipping: 1
    - _AlphaCutoff: 0.716
    - _Angle: 7
    - _Anisotropy: 0
    - _Artistic: 0
    - _ArtisticFrequency: 1
    - _ArtisticProjection: 0
    - _Blend: 2
    - _BlendDst: 1
    - _BlendDstAlpha: 1
    - _BlendSrc: 5
    - _BlendSrcAlpha: 1
    - _Brightness: 1
    - _BumpScale: 1
    - _CameraFade: 0
    - _CameraFadeFarDistance: 2
    - _CameraFadeNearDistance: 1
    - _ColorBlend: 0
    - _ColorGrading: 0
    - _Contrast: 1
    - _Cutoff: 0.716
    - _CutoffRange: 0
    - _Delta: 20
    - _DetailBlend: 0
    - _DetailMix: 0.5
    - _DetailNormalMapIntensity: 1
    - _DetailNormalMapScale: 1
    - _Diffuse: 0
    - _DiffuseSmoothness: 0
    - _DiffuseThresholdOffset: 0.25
    - _Dissolve: 0
    - _DissolveAmount: 0.5
    - _DissolveBorderSize: 0.25
    - _DissolveMapScale: 1
    - _DrawnClampMax: 1
    - _DrawnClampMin: 0
    - _DrawnMapScale: 1
    - _DstBlend: 0
    - _Emboss: 0.3
    - _EnvironmentReflections: 2
    - _Flipbook: 0
    - _Frequency: 4
    - _FresnelHighlights: 0
    - _Glossiness: 0.5
    - _GoochRampIntensity: 0.5
    - _HatchingMapScale: 1
    - _HeightScale: 0.5
    - _IndexOfRefraction: 0
    - _IndirectFade: 1
    - _Initialized: 0
    - _InputTab: 1
    - _Intence: 400
    - _Intensity: 3
    - _InvFade: 3
    - _Iridescence: 0
    - _IridescenceSize: 1
    - _IridescenceSmoothness: 0.5
    - _IridescenceThresholdOffset: 0
    - _Light: 0
    - _LightBands: 4
    - _LightBandsScale: 0.5
    - _LightThreshold: 0.5
    - _LightTransmission: 0
    - _LightTransmissionDistortion: 0.25
    - _LightTransmissionIntensity: 1
    - _LightTransmissionSmoothness: 0.5
    - _LightTransmissionThresholdOffset: 0.25
    - _Metallic: 0
    - _Mode: 0
    - _NoiseScale: 0.02
    - _NormalMapIntensity: 1
    - _OcclusionMapIntensity: 1
    - _OcclusionStrength: 1
    - _OptionsTab: 1
    - _Outline: 3
    - _OutlineData: 0
    - _OutlineFadeMax: 2
    - _OutlineFadeMin: 0.25
    - _OutlineNoise: 0
    - _OutlineSize: 5
    - _Parallax: 0.02
    - _ParticlesTab: 1
    - _ReceiveShadows: 1
    - _RefractionDistortion: 0.1
    - _RefractionDistortionFade: 0.5
    - _RefractionDistortionMapScale: 1
    - _RefractionTab: 0
    - _RenderFace: 2
    - _RenderPriority: 0
    - _Rim: 0
    - _RimSize: 1
    - _RimSmoothness: 0.5
    - _RimThresholdOffset: 0.25
    - _Roughness: 0.5
    - _Saturation: 1
    - _Shininess: 0.078125
    - _SketchMapScale: 1
    - _Smoothness: 0.5
    - _SoftFade: 0
    - _SoftFadeFarDistance: 1
    - _SoftFadeNearDistance: 0
    - _Specular: 0
    - _SpecularIntensity: 1
    - _SpecularSmoothness: 0
    - _SpecularThresholdOffset: 0.25
    - _Speed: 0.2
    - _SpeedX: 0.3
    - _SpeedY: 0.3
    - _SrcBlend: 1
    - _Stencil: 1
    - _StencilComp: 8
    - _StencilFail: 0
    - _StencilPass: 0
    - _StencilReadMask: 255
    - _StencilRef: 0
    - _StencilWriteMask: 255
    - _StencilZFail: 0
    - _StylizeTab: 1
    - _Surface: 1
    - _ThresholdMapScale: 1
    - _UVSec: 0
    - _VertexAnimation: 0
    - _VertexAnimationIntensity: 0.05
    - _VertexAnimationStutter: 0
    - _WaveSpeed: 2.5
    - _Workflow: 0
    - _WrappedLighting: 1
    - _ZTest: 4
    - _ZWrite: 0
    m_Colors:
    - _AlbedoColor: {r: 0.31132078, g: 0.31132078, b: 0.31132078, a: 1}
    - _CameraFadeParams: {r: 0, g: 0, b: 0, a: 0}
    - _Color: {r: 0.31132078, g: 0.31132078, b: 0.31132078, a: 1}
    - _DetailColor: {r: 1, g: 1, b: 1, a: 1}
    - _DissolveBorderColor: {r: 1, g: 1, b: 1, a: 1}
    - _EmissionColor: {r: 0, g: 0, b: 0, a: 1}
    - _GoochBrightColor: {r: 1, g: 1, b: 1, a: 1}
    - _GoochDarkColor: {r: 0, g: 0, b: 0, a: 1}
    - _IridescenceColor: {r: 1, g: 1, b: 1, a: 0.5}
    - _LightTransmissionColor: {r: 1, g: 0.65, b: 0, a: 1}
    - _OutlineColor: {r: 0, g: 0, b: 0, a: 1}
    - _RimBrightColor: {r: 1, g: 1, b: 1, a: 1}
    - _RimColor: {r: 1, g: 1, b: 1, a: 1}
    - _RimDarkColor: {r: 0, g: 0, b: 0, a: 1}
    - _SoftFadeModeParams: {r: 0, g: 0, b: 0, a: 0}
    - _SpecColor: {r: 1, g: 1, b: 1, a: 1}
    - _SpecularColor: {r: 0.203125, g: 0.203125, b: 0.203125, a: 1}
    - _TintColor: {r: 0, g: 0.55293894, b: 0.6037736, a: 0.24705882}
    - _VertexAnimationFrequency: {r: 2.5, g: 2.5, b: 2.5, a: 1}
  m_BuildTextureStacks: []
