%YAML 1.1
%TAG !u! tag:unity3d.com,2011:
--- !u!21 &2100000
Material:
  serializedVersion: 8
  m_ObjectHideFlags: 0
  m_CorrespondingSourceObject: {fileID: 0}
  m_PrefabInstance: {fileID: 0}
  m_PrefabAsset: {fileID: 0}
  m_Name: SmokeBlended
  m_Shader: {fileID: 4800000, guid: 6db0629b23f1ef84aa0bc928cc183748, type: 3}
  m_ValidKeywords:
  - _MK_ALBEDO_MAP
  - _MK_SURFACE_TYPE_TRANSPARENT
  m_InvalidKeywords:
  - _FLIPBOOK_ON
  - _MK_FLIPBOOK
  m_LightmapFlags: 4
  m_EnableInstancingVariants: 0
  m_DoubleSidedGI: 0
  m_CustomRenderQueue: 3000
  stringTagMap:
    IGNOREPROJECTOR: true
    RenderType: Transparent
  disabledShaderPasses:
  - SHADOWCASTER
  m_SavedProperties:
    serializedVersion: 3
    m_TexEnvs:
    - _AlbedoMap:
        m_Texture: {fileID: 2800000, guid: b0db8e0556160ed4a80b010445fe4e5c, type: 3}
        m_Scale: {x: 1, y: 1}
        m_Offset: {x: 0, y: 0}
    - _BumpMap:
        m_Texture: {fileID: 0}
        m_Scale: {x: 1, y: 1}
        m_Offset: {x: 0, y: 0}
    - _DetailAlbedoMap:
        m_Texture: {fileID: 0}
        m_Scale: {x: 1, y: 1}
        m_Offset: {x: 0, y: 0}
    - _DetailMask:
        m_Texture: {fileID: 0}
        m_Scale: {x: 1, y: 1}
        m_Offset: {x: 0, y: 0}
    - _DetailNormalMap:
        m_Texture: {fileID: 0}
        m_Scale: {x: 1, y: 1}
        m_Offset: {x: 0, y: 0}
    - _DissolveBorderRamp:
        m_Texture: {fileID: 0}
        m_Scale: {x: 1, y: 1}
        m_Offset: {x: 0, y: 0}
    - _DissolveMap:
        m_Texture: {fileID: 0}
        m_Scale: {x: 1, y: 1}
        m_Offset: {x: 0, y: 0}
    - _EmissionMap:
        m_Texture: {fileID: 0}
        m_Scale: {x: 1, y: 1}
        m_Offset: {x: 0, y: 0}
    - _MainTex:
        m_Texture: {fileID: 2800000, guid: b0db8e0556160ed4a80b010445fe4e5c, type: 3}
        m_Scale: {x: 1, y: 1}
        m_Offset: {x: 0, y: 0}
    - _MetallicGlossMap:
        m_Texture: {fileID: 0}
        m_Scale: {x: 1, y: 1}
        m_Offset: {x: 0, y: 0}
    - _NoiseMap:
        m_Texture: {fileID: 2800000, guid: b376780a16f30e141824d5baae6b8f5e, type: 3}
        m_Scale: {x: 1, y: 1}
        m_Offset: {x: 0, y: 0}
    - _OcclusionMap:
        m_Texture: {fileID: 0}
        m_Scale: {x: 1, y: 1}
        m_Offset: {x: 0, y: 0}
    - _ParallaxMap:
        m_Texture: {fileID: 0}
        m_Scale: {x: 1, y: 1}
        m_Offset: {x: 0, y: 0}
    - _VertexAnimationMap:
        m_Texture: {fileID: 0}
        m_Scale: {x: 1, y: 1}
        m_Offset: {x: 0, y: 0}
    m_Ints: []
    m_Floats:
    - _AdvancedTab: 0
    - _AlbedoMapIntensity: 1
    - _AlphaClipping: 0
    - _AlphaCutoff: 0.5
    - _Blend: 0
    - _BlendDst: 10
    - _BlendDstAlpha: 10
    - _BlendSrc: 5
    - _BlendSrcAlpha: 1
    - _Brightness: 1
    - _BumpScale: 1
    - _CameraFade: 0
    - _CameraFadeFarDistance: 2
    - _CameraFadeNearDistance: 1
    - _ColorBlend: 0
    - _ColorGrading: 0
    - _Contrast: 1
    - _CustomBlend: 0
    - _Cutoff: 0.5
    - _DetailNormalMapScale: 1
    - _Dissolve: 0
    - _DissolveAmount: 0.5
    - _DissolveBorderSize: 0.25
    - _DissolveMapScale: 1
    - _DstBlend: 0
    - _Flipbook: 1
    - _GlossMapScale: 1
    - _Glossiness: 0.5
    - _GlossyReflections: 1
    - _Initialized: 1
    - _InputTab: 1
    - _Metallic: 0
    - _Mode: 0
    - _OcclusionStrength: 1
    - _OptionsTab: 1
    - _Parallax: 0.02
    - _ParticlesTab: 1
    - _RenderFace: 0
    - _RenderPriority: 0
    - _Saturation: 1
    - _SmoothnessTextureChannel: 0
    - _SoftFade: 0
    - _SoftFadeFarDistance: 1
    - _SoftFadeNearDistance: 0
    - _SpecularHighlights: 1
    - _SrcBlend: 1
    - _Stencil: 1
    - _StencilComp: 8
    - _StencilFail: 0
    - _StencilPass: 0
    - _StencilReadMask: 255
    - _StencilRef: 0
    - _StencilWriteMask: 255
    - _StencilZFail: 0
    - _StylizeTab: 0
    - _Surface: 1
    - _UVSec: 0
    - _VertexAnimation: 0
    - _VertexAnimationIntensity: 0.05
    - _VertexAnimationStutter: 0
    - _ZTest: 4
    - _ZWrite: 0
    m_Colors:
    - _AlbedoColor: {r: 1, g: 1, b: 1, a: 1}
    - _CameraFadeParams: {r: 0, g: 0, b: 0, a: 0}
    - _Color: {r: 1, g: 1, b: 1, a: 1}
    - _DissolveBorderColor: {r: 1, g: 1, b: 1, a: 1}
    - _EmissionColor: {r: 0, g: 0, b: 0, a: 1}
    - _SoftFadeModeParams: {r: 0, g: 0, b: 0, a: 0}
    - _VertexAnimationFrequency: {r: 2.5, g: 2.5, b: 2.5, a: 1}
  m_BuildTextureStacks: []
