%YAML 1.1
%TAG !u! tag:unity3d.com,2011:
--- !u!21 &2100000
Material:
  serializedVersion: 8
  m_ObjectHideFlags: 0
  m_CorrespondingSourceObject: {fileID: 0}
  m_PrefabInstance: {fileID: 0}
  m_PrefabAsset: {fileID: 0}
  m_Name: TOMWAY_M
  m_Shader: {fileID: 4800000, guid: bee44b4a58655ee4cbff107302a3e131, type: 3}
  m_ValidKeywords:
  - DR_CEL_EXTRA_ON
  - DR_GRADIENT_ON
  - DR_RIM_ON
  - DR_SPECULAR_ON
  - _CELPRIMARYMODE_SINGLE
  - _TEXTUREBLENDINGMODE_MULTIPLY
  - _UNITYSHADOWMODE_COLOR
  m_InvalidKeywords:
  - DR_OUTLINE_ON
  - _EMISSION
  - _FLAT_SHADOWS_ENABLED
  - _FLAT_SPECULAR_ENABLED
  m_LightmapFlags: 2
  m_EnableInstancingVariants: 0
  m_DoubleSidedGI: 0
  m_CustomRenderQueue: 2000
  stringTagMap:
    RenderType: Opaque
  disabledShaderPasses: []
  m_SavedProperties:
    serializedVersion: 3
    m_TexEnvs:
    - _BaseMap:
        m_Texture: {fileID: 2800000, guid: a773f4bba20593f48889dd320b9c9097, type: 3}
        m_Scale: {x: 1, y: 1}
        m_Offset: {x: 0, y: 0}
    - _BumpMap:
        m_Texture: {fileID: 0}
        m_Scale: {x: 1, y: 1}
        m_Offset: {x: 0, y: 0}
    - _CelCurveTexture:
        m_Texture: {fileID: 0}
        m_Scale: {x: 1, y: 1}
        m_Offset: {x: 0, y: 0}
    - _CelStepTexture:
        m_Texture: {fileID: 0}
        m_Scale: {x: 1, y: 1}
        m_Offset: {x: 0, y: 0}
    - _DetailAlbedoMap:
        m_Texture: {fileID: 0}
        m_Scale: {x: 1, y: 1}
        m_Offset: {x: 0, y: 0}
    - _DetailMask:
        m_Texture: {fileID: 0}
        m_Scale: {x: 1, y: 1}
        m_Offset: {x: 0, y: 0}
    - _DetailNormalMap:
        m_Texture: {fileID: 0}
        m_Scale: {x: 1, y: 1}
        m_Offset: {x: 0, y: 0}
    - _EmissionMap:
        m_Texture: {fileID: 2800000, guid: a5e21f4e466690645980dd0cf0b664bc, type: 3}
        m_Scale: {x: 1, y: 1}
        m_Offset: {x: 0, y: 0}
    - _MainTex:
        m_Texture: {fileID: 0}
        m_Scale: {x: 1, y: 1}
        m_Offset: {x: 0, y: 0}
    - _MetallicGlossMap:
        m_Texture: {fileID: 0}
        m_Scale: {x: 1, y: 1}
        m_Offset: {x: 0, y: 0}
    - _OcclusionMap:
        m_Texture: {fileID: 0}
        m_Scale: {x: 1, y: 1}
        m_Offset: {x: 0, y: 0}
    - _ParallaxMap:
        m_Texture: {fileID: 0}
        m_Scale: {x: 1, y: 1}
        m_Offset: {x: 0, y: 0}
    m_Ints: []
    m_Floats:
    - _AlphaClip: 0
    - _Blend: 0
    - _BumpScale: 1
    - _CameraDistanceImpact: 0.861
    - _CelExtraEnabled: 1
    - _CelNumSteps: 8
    - _CelPrimaryEnabled: 0
    - _CelPrimaryMode: 1
    - _Cull: 2
    - _Cutoff: 0.5
    - _DetailNormalMapScale: 1
    - _DstBlend: 0
    - _FlatRimAmount: 0.5
    - _FlatRimEdgeSmoothness: 1
    - _FlatRimEnabled: 1
    - _FlatRimLightAlign: 0
    - _FlatRimSize: 0.386
    - _FlatShadowsEnabled: 1
    - _FlatSmoothness: 0.362
    - _FlatSpecularEdgeSmoothness: 0
    - _FlatSpecularEnabled: 1
    - _FlatSpecularSize: 0
    - _FlatSpecularSmoothness: 0.5
    - _Flatness: 1
    - _FlatnessExtra: 1
    - _FlatnessSecondary: 1
    - _GlossMapScale: 1
    - _Glossiness: 0
    - _GlossyReflections: 1
    - _GradientAngle: 289
    - _GradientCenterX: 2.61
    - _GradientCenterY: -2.28
    - _GradientEnabled: 1
    - _GradientEnd: 0.55
    - _GradientSize: 9.51
    - _GradientStart: 1.17
    - _LightContribution: 0.887
    - _LightFalloffSize: 0.099
    - _LightmapDirectionPitch: 141
    - _LightmapDirectionYaw: 360
    - _Metallic: 0
    - _Mode: 0
    - _OcclusionStrength: 1
    - _OutlineDepthOffset: 0
    - _OutlineEnabled: 1
    - _OutlineScale: 1
    - _OutlineWidth: 3
    - _OverrideLightmapDir: 0
    - _OverrideShadows: 1
    - _OverrideShadowsEnabled: 1
    - _Parallax: 0.02
    - _QueueOffset: 0
    - _RimEnabled: 1
    - _SecondaryColor: 1
    - _SecondaryColorEnabled: 1
    - _SelfShadingSize: 0.22
    - _SelfShadingSizeExtra: 0.388
    - _ShadowEdgeSize: 0.5
    - _ShadowEdgeSizeExtra: 0.286
    - _ShadowEdgeSmoothness: 0.071
    - _ShadowFalloff: 0.01
    - _SmoothnessTextureChannel: 0
    - _SpecularEnabled: 1
    - _SpecularHighlights: 1
    - _SrcBlend: 1
    - _Surface: 0
    - _TextureBlendingMode: 0
    - _TextureImpact: 1
    - _UVSec: 0
    - _UnityShadowMode: 2
    - _UnityShadowOcclusion: 0
    - _UnityShadowPower: 0.286
    - _UnityShadowSharpness: 5.79
    - _VertexColorsEnabled: 0
    - _ZWrite: 1
    m_Colors:
    - _BaseColor: {r: 0.9575472, g: 1, b: 0.9884678, a: 1}
    - _Color: {r: 0, g: 0.5799811, b: 1, a: 1}
    - _ColorCelShadow: {r: 0.49056602, g: 0.34478462, b: 0.4476891, a: 1}
    - _ColorDim: {r: 0, g: 0, b: 0, a: 0.85}
    - _ColorDimCurve: {r: 0.85, g: 0.85, b: 0.85, a: 0.85}
    - _ColorDimExtra: {r: 0, g: 0.31801087, b: 0.49056602, a: 0.85}
    - _ColorDimSteps: {r: 1, g: 1, b: 1, a: 0.85}
    - _ColorGradient: {r: 1, g: 1, b: 1, a: 1}
    - _ColorSecondary: {r: 1, g: 0.55879205, b: 0, a: 1}
    - _ColorShadow: {r: 0.5, g: 0.5, b: 0.5, a: 1}
    - _ColorShadows: {r: 0.5471698, g: 0.37346402, b: 0.26584196, a: 1}
    - _EmissionColor: {r: 0.3254717, g: 0.8263938, b: 1, a: 1}
    - _FlatRimColor: {r: 0.6698113, g: 0.6698113, b: 0.6698113, a: 1}
    - _FlatSpecularColor: {r: 0.22347811, g: 0.313835, b: 0.5849056, a: 1}
    - _LightmapDirection: {r: 0.00000011003389, g: -0.77714586, b: 0.6293205, a: 0}
    - _OutlineColor: {r: 0, g: 0, b: 0, a: 1}
    - _UnityShadowColor: {r: 0, g: 0.6420536, b: 1, a: 1}
  m_BuildTextureStacks: []
