%YAML 1.1
%TAG !u! tag:unity3d.com,2011:
--- !u!21 &2100000
Material:
  serializedVersion: 8
  m_ObjectHideFlags: 0
  m_CorrespondingSourceObject: {fileID: 0}
  m_PrefabInstance: {fileID: 0}
  m_PrefabAsset: {fileID: 0}
  m_Name: StandardMi_Star
  m_Shader: {fileID: 46, guid: 0000000000000000f000000000000000, type: 0}
  m_ValidKeywords:
  - _EMISSION
  - _SMOOTHNESS_TEXTURE_ALBEDO_CHANNEL_A
  m_InvalidKeywords:
  - DR_CEL_EXTRA_ON
  - DR_ENABLE_LIGHTMAP_DIR
  - DR_GRADIENT_ON
  - DR_OUTLINE_ON
  - DR_RIM_ON
  - DR_VERTEX_COLORS_ON
  - _CELPRIMARYMODE_NONE
  - _FLAT_SHADOWS_ENABLED
  - _FLAT_SPECULAR_ENABLED
  - _OVERRIDELIGHTMAPDIR_ON
  - _TEXTUREBLENDINGMODE_MULTIPLY
  - _UNITYSHADOWMODE_MULTIPLY
  m_LightmapFlags: 2
  m_EnableInstancingVariants: 1
  m_DoubleSidedGI: 0
  m_CustomRenderQueue: -1
  stringTagMap: {}
  disabledShaderPasses: []
  m_SavedProperties:
    serializedVersion: 3
    m_TexEnvs:
    - _BaseMap:
        m_Texture: {fileID: 2800000, guid: a773f4bba20593f48889dd320b9c9097, type: 3}
        m_Scale: {x: 1, y: 1}
        m_Offset: {x: 0, y: 0}
    - _BumpMap:
        m_Texture: {fileID: 0}
        m_Scale: {x: 1, y: 1}
        m_Offset: {x: 0, y: 0}
    - _CelCurveTexture:
        m_Texture: {fileID: 2800000, guid: a773f4bba20593f48889dd320b9c9097, type: 3}
        m_Scale: {x: 1, y: 1}
        m_Offset: {x: 0, y: 0}
    - _CelStepTexture:
        m_Texture: {fileID: 2800000, guid: a773f4bba20593f48889dd320b9c9097, type: 3}
        m_Scale: {x: 1, y: 1}
        m_Offset: {x: 0, y: 0}
    - _DetailAlbedoMap:
        m_Texture: {fileID: 0}
        m_Scale: {x: 1, y: 1}
        m_Offset: {x: 0, y: 0}
    - _DetailMask:
        m_Texture: {fileID: 0}
        m_Scale: {x: 1, y: 1}
        m_Offset: {x: 0, y: 0}
    - _DetailNormalMap:
        m_Texture: {fileID: 0}
        m_Scale: {x: 1, y: 1}
        m_Offset: {x: 0, y: 0}
    - _EmissionMap:
        m_Texture: {fileID: 2800000, guid: b600a4706992f2f4da6fee84fe5f4432, type: 3}
        m_Scale: {x: 1, y: 1}
        m_Offset: {x: 0, y: 0}
    - _MainTex:
        m_Texture: {fileID: 2800000, guid: b600a4706992f2f4da6fee84fe5f4432, type: 3}
        m_Scale: {x: 1, y: 1}
        m_Offset: {x: 0, y: 0}
    - _MetallicGlossMap:
        m_Texture: {fileID: 0}
        m_Scale: {x: 1, y: 1}
        m_Offset: {x: 0, y: 0}
    - _OcclusionMap:
        m_Texture: {fileID: 0}
        m_Scale: {x: 1, y: 1}
        m_Offset: {x: 0, y: 0}
    - _ParallaxMap:
        m_Texture: {fileID: 0}
        m_Scale: {x: 1, y: 1}
        m_Offset: {x: 0, y: 0}
    m_Ints: []
    m_Floats:
    - _AlphaClip: 0
    - _Blend: 0
    - _BumpScale: 1
    - _CameraDistanceImpact: 1
    - _CelExtraEnabled: 1
    - _CelNumSteps: 10
    - _CelPrimaryEnabled: 0
    - _CelPrimaryMode: 0
    - _Cull: 2
    - _Cutoff: 0.5
    - _DetailNormalMapScale: 1
    - _DstBlend: 0
    - _FlatRimAmount: 0.5
    - _FlatRimEdgeSmoothness: 0
    - _FlatRimEnabled: 1
    - _FlatRimLightAlign: 0
    - _FlatRimSize: 0
    - _FlatShadowsEnabled: 1
    - _FlatSmoothness: 0.362
    - _FlatSpecularEdgeSmoothness: 0
    - _FlatSpecularEnabled: 1
    - _FlatSpecularSize: 0.257
    - _FlatSpecularSmoothness: 0.5
    - _Flatness: 0.167
    - _FlatnessExtra: 1
    - _FlatnessSecondary: 1
    - _GlossMapScale: 0.3
    - _Glossiness: 0
    - _GlossyReflections: 1
    - _GradientAngle: 360
    - _GradientCenterX: 2.61
    - _GradientCenterY: 7.76
    - _GradientEnabled: 1
    - _GradientEnd: 0.55
    - _GradientSize: 5.01
    - _GradientStart: 1.17
    - _LightContribution: 1
    - _LightFalloffSize: 0.739
    - _LightmapDirectionPitch: 360
    - _LightmapDirectionYaw: 360
    - _Metallic: 0.34
    - _Mode: 0
    - _OcclusionStrength: 1
    - _OutlineDepthOffset: 0
    - _OutlineEnabled: 1
    - _OutlineScale: 1
    - _OutlineWidth: 3
    - _OverrideLightmapDir: 1
    - _OverrideShadows: 1
    - _OverrideShadowsEnabled: 1
    - _Parallax: 0.02
    - _QueueOffset: 0
    - _RimEnabled: 1
    - _SecondaryColor: 1
    - _SecondaryColorEnabled: 1
    - _SelfShadingSize: 0
    - _SelfShadingSizeExtra: 0
    - _ShadowEdgeSize: 0.476
    - _ShadowEdgeSizeExtra: 0.5
    - _ShadowEdgeSmoothness: 0.071
    - _ShadowFalloff: 0.01
    - _SmoothnessTextureChannel: 1
    - _SpecularEnabled: 0
    - _SpecularHighlights: 1
    - _SrcBlend: 1
    - _Surface: 0
    - _TextureBlendingMode: 0
    - _TextureImpact: 1
    - _UVSec: 0
    - _UnityShadowMode: 1
    - _UnityShadowOcclusion: 0
    - _UnityShadowPower: 1
    - _UnityShadowSharpness: 10
    - _VertexColorsEnabled: 1
    - _ZWrite: 1
    m_Colors:
    - _BaseColor: {r: 0, g: 0.8881693, b: 1, a: 1}
    - _Color: {r: 0.7019608, g: 0.7019608, b: 0.7019608, a: 1}
    - _ColorCelShadow: {r: 0.49056602, g: 0.34478462, b: 0.4476891, a: 1}
    - _ColorDim: {r: 1, g: 0.99149597, b: 0, a: 0.85}
    - _ColorDimCurve: {r: 0.85, g: 0.85, b: 0.85, a: 0.85}
    - _ColorDimExtra: {r: 1, g: 1, b: 1, a: 0.85}
    - _ColorDimSteps: {r: 1, g: 1, b: 1, a: 0.85}
    - _ColorGradient: {r: 1, g: 1, b: 1, a: 1}
    - _ColorSecondary: {r: 1, g: 0.55879205, b: 0, a: 1}
    - _ColorShadow: {r: 0.5, g: 0.5, b: 0.5, a: 1}
    - _ColorShadows: {r: 0.5471698, g: 0.37346402, b: 0.26584196, a: 1}
    - _EmissionColor: {r: 0.735849, g: 0.735849, b: 0.735849, a: 1}
    - _FlatRimColor: {r: 0.8207547, g: 0.8207547, b: 0.8207547, a: 1}
    - _FlatSpecularColor: {r: 0, g: 0, b: 0, a: 1}
    - _LightmapDirection: {r: 3.0570967e-14, g: 1, b: 0.00000017484555, a: 0}
    - _OutlineColor: {r: 0.2506675, g: 0.29625812, b: 0.4056604, a: 1}
    - _UnityShadowColor: {r: 0.3207547, g: 0.3207547, b: 0.3207547, a: 1}
  m_BuildTextureStacks: []
