%YAML 1.1
%TAG !u! tag:unity3d.com,2011:
--- !u!21 &2100000
Material:
  serializedVersion: 8
  m_ObjectHideFlags: 0
  m_CorrespondingSourceObject: {fileID: 0}
  m_PrefabInstance: {fileID: 0}
  m_PrefabAsset: {fileID: 0}
  m_Name: StandardTomway_TreeColor1
  m_Shader: {fileID: 211, guid: 0000000000000000f000000000000000, type: 0}
  m_ValidKeywords: []
  m_InvalidKeywords:
  - DR_GRADIENT_ON
  - DR_OUTLINE_ON
  - _CELPRIMARYMODE_NONE
  - _FLAT_SHADOWS_ENABLED
  - _FLAT_SPECULAR_ENABLED
  - _MK_ALBEDO_MAP
  - _MK_ARTISTIC_ANIMATION_STUTTER
  - _MK_COLOR_GRADING_ALBEDO
  - _MK_DETAIL_BLEND_MIX
  - _MK_EMISSION
  - _MK_EMISSION_MAP
  - _MK_ENVIRONMENT_REFLECTIONS_AMBIENT
  - _MK_OUTLINE_HULL_ORIGIN
  - _MK_OUTLINE_NOISE
  - _MK_RECEIVE_SHADOWS
  - _MK_RIM_DEFAULT
  - _MK_WRAPPED_DIFFUSE
  - _OVERRIDELIGHTMAPDIR_ON
  - _RECEIVESHADOWS_ON
  - _SMOOTHNESS_TEXTURE_ALBEDO_CHANNEL_A
  - _TEXTUREBLENDINGMODE_MULTIPLY
  - _UNITYSHADOWMODE_MULTIPLY
  - _UNITYSHADOW_OCCLUSION
  - _WRAPPEDLIGHTING_ON
  m_LightmapFlags: 0
  m_EnableInstancingVariants: 1
  m_DoubleSidedGI: 0
  m_CustomRenderQueue: -1
  stringTagMap:
    IGNOREPROJECTOR: False
  disabledShaderPasses:
  - GRABPASS
  m_SavedProperties:
    serializedVersion: 3
    m_TexEnvs:
    - _AlbedoMap:
        m_Texture: {fileID: 2800000, guid: c84d104e1098f1c4fad31fba78c2a8ce, type: 3}
        m_Scale: {x: 1, y: 1}
        m_Offset: {x: 0, y: 0}
    - _BaseMap:
        m_Texture: {fileID: 2800000, guid: d0cb7b6533f636542a797b00e7d022d0, type: 3}
        m_Scale: {x: 1, y: 1}
        m_Offset: {x: 0, y: 0}
    - _BumpMap:
        m_Texture: {fileID: 0}
        m_Scale: {x: 1, y: 1}
        m_Offset: {x: 0, y: 0}
    - _CelCurveTexture:
        m_Texture: {fileID: 0}
        m_Scale: {x: 1, y: 1}
        m_Offset: {x: 0, y: 0}
    - _CelStepTexture:
        m_Texture: {fileID: 2800000, guid: 92e6062cdc346f346bd3b1ed90027d9d, type: 3}
        m_Scale: {x: 1, y: 1}
        m_Offset: {x: 0, y: 0}
    - _DetailAlbedoMap:
        m_Texture: {fileID: 0}
        m_Scale: {x: 1, y: 1}
        m_Offset: {x: 0, y: 0}
    - _DetailMap:
        m_Texture: {fileID: 0}
        m_Scale: {x: 1, y: 1}
        m_Offset: {x: 0, y: 0}
    - _DetailMask:
        m_Texture: {fileID: 0}
        m_Scale: {x: 1, y: 1}
        m_Offset: {x: 0, y: 0}
    - _DetailNormalMap:
        m_Texture: {fileID: 0}
        m_Scale: {x: 1, y: 1}
        m_Offset: {x: 0, y: 0}
    - _DiffuseRamp:
        m_Texture: {fileID: 0}
        m_Scale: {x: 1, y: 1}
        m_Offset: {x: 0, y: 0}
    - _DissolveBorderRamp:
        m_Texture: {fileID: 0}
        m_Scale: {x: 1, y: 1}
        m_Offset: {x: 0, y: 0}
    - _DissolveMap:
        m_Texture: {fileID: 0}
        m_Scale: {x: 1, y: 1}
        m_Offset: {x: 0, y: 0}
    - _DrawnMap:
        m_Texture: {fileID: 0}
        m_Scale: {x: 1, y: 1}
        m_Offset: {x: 0, y: 0}
    - _EmissionMap:
        m_Texture: {fileID: 2800000, guid: ddb76711b52ecff459ff1181770ee0a8, type: 3}
        m_Scale: {x: 1, y: 1}
        m_Offset: {x: 0, y: 0}
    - _GoochBrightMap:
        m_Texture: {fileID: 0}
        m_Scale: {x: 1, y: 1}
        m_Offset: {x: 0, y: 0}
    - _GoochDarkMap:
        m_Texture: {fileID: 0}
        m_Scale: {x: 1, y: 1}
        m_Offset: {x: 0, y: 0}
    - _GoochRamp:
        m_Texture: {fileID: 0}
        m_Scale: {x: 1, y: 1}
        m_Offset: {x: 0, y: 0}
    - _HatchingBrightMap:
        m_Texture: {fileID: 0}
        m_Scale: {x: 1, y: 1}
        m_Offset: {x: 0, y: 0}
    - _HatchingDarkMap:
        m_Texture: {fileID: 0}
        m_Scale: {x: 1, y: 1}
        m_Offset: {x: 0, y: 0}
    - _HeightMap:
        m_Texture: {fileID: 0}
        m_Scale: {x: 1, y: 1}
        m_Offset: {x: 0, y: 0}
    - _IridescenceRamp:
        m_Texture: {fileID: 0}
        m_Scale: {x: 1, y: 1}
        m_Offset: {x: 0, y: 0}
    - _LightTransmissionRamp:
        m_Texture: {fileID: 0}
        m_Scale: {x: 1, y: 1}
        m_Offset: {x: 0, y: 0}
    - _MainTex:
        m_Texture: {fileID: 2800000, guid: a773f4bba20593f48889dd320b9c9097, type: 3}
        m_Scale: {x: 1, y: 1}
        m_Offset: {x: 0, y: 0}
    - _MetallicGlossMap:
        m_Texture: {fileID: 0}
        m_Scale: {x: 1, y: 1}
        m_Offset: {x: 0, y: 0}
    - _MetallicMap:
        m_Texture: {fileID: 0}
        m_Scale: {x: 1, y: 1}
        m_Offset: {x: 0, y: 0}
    - _NoiseMap:
        m_Texture: {fileID: 2800000, guid: b376780a16f30e141824d5baae6b8f5e, type: 3}
        m_Scale: {x: 1, y: 1}
        m_Offset: {x: 0, y: 0}
    - _NormalMap:
        m_Texture: {fileID: 0}
        m_Scale: {x: 1, y: 1}
        m_Offset: {x: 0, y: 0}
    - _OcclusionMap:
        m_Texture: {fileID: 0}
        m_Scale: {x: 1, y: 1}
        m_Offset: {x: 0, y: 0}
    - _OutlineMap:
        m_Texture: {fileID: 0}
        m_Scale: {x: 1, y: 1}
        m_Offset: {x: 0, y: 0}
    - _ParallaxMap:
        m_Texture: {fileID: 0}
        m_Scale: {x: 1, y: 1}
        m_Offset: {x: 0, y: 0}
    - _RefractionDistortionMap:
        m_Texture: {fileID: 0}
        m_Scale: {x: 1, y: 1}
        m_Offset: {x: 0, y: 0}
    - _RimRamp:
        m_Texture: {fileID: 0}
        m_Scale: {x: 1, y: 1}
        m_Offset: {x: 0, y: 0}
    - _RoughnessMap:
        m_Texture: {fileID: 0}
        m_Scale: {x: 1, y: 1}
        m_Offset: {x: 0, y: 0}
    - _SketchMap:
        m_Texture: {fileID: 0}
        m_Scale: {x: 1, y: 1}
        m_Offset: {x: 0, y: 0}
    - _SpecularMap:
        m_Texture: {fileID: 0}
        m_Scale: {x: 1, y: 1}
        m_Offset: {x: 0, y: 0}
    - _SpecularRamp:
        m_Texture: {fileID: 0}
        m_Scale: {x: 1, y: 1}
        m_Offset: {x: 0, y: 0}
    - _ThicknessMap:
        m_Texture: {fileID: 0}
        m_Scale: {x: 1, y: 1}
        m_Offset: {x: 0, y: 0}
    - _ThresholdMap:
        m_Texture: {fileID: 0}
        m_Scale: {x: 1, y: 1}
        m_Offset: {x: 0, y: 0}
    - _VertexAnimationMap:
        m_Texture: {fileID: 0}
        m_Scale: {x: 1, y: 1}
        m_Offset: {x: 0, y: 0}
    m_Ints: []
    m_Floats:
    - _AdvancedTab: 1
    - _AlbedoMapIntensity: 1
    - _AlphaClip: 0
    - _AlphaClipping: 0
    - _AlphaCutoff: 0.5
    - _Anisotropy: 0
    - _Artistic: 0
    - _ArtisticFrequency: 1
    - _ArtisticProjection: 0
    - _Blend: 0
    - _BlendDst: 0
    - _BlendDstAlpha: 0
    - _BlendOp: 0
    - _BlendSrc: 1
    - _BlendSrcAlpha: 1
    - _Brightness: 1.8
    - _BumpScale: 1
    - _CameraDistanceImpact: 1
    - _CameraFadingEnabled: 0
    - _CameraFarFadeDistance: 2
    - _CameraNearFadeDistance: 1
    - _CelExtraEnabled: 0
    - _CelNumSteps: 5
    - _CelPrimaryEnabled: 0
    - _CelPrimaryMode: 0
    - _ColorGrading: 1
    - _ColorMode: 0
    - _Contrast: 0.63
    - _Cull: 2
    - _Cutoff: 0.5
    - _DetailBlend: 0
    - _DetailMix: 0.5
    - _DetailNormalMapIntensity: 1
    - _DetailNormalMapScale: 1
    - _Diffuse: 0
    - _DiffuseSmoothness: 0
    - _DiffuseThresholdOffset: 0.25
    - _Dissolve: 0
    - _DissolveAmount: 0.5
    - _DissolveBorderSize: 0.25
    - _DissolveMapScale: 1
    - _DistortionBlend: 0.5
    - _DistortionEnabled: 0
    - _DistortionStrength: 1
    - _DistortionStrengthScaled: 0
    - _DrawnClampMax: 1
    - _DrawnClampMin: 0
    - _DrawnMapScale: 1
    - _DstBlend: 0
    - _EmissionEnabled: 0
    - _EnvironmentReflections: 1
    - _FlatRimAmount: 0.5
    - _FlatRimEdgeSmoothness: 0.721
    - _FlatRimEnabled: 1
    - _FlatRimLightAlign: 0.42
    - _FlatRimSize: 0.844
    - _FlatShadowsEnabled: 1
    - _FlatSmoothness: 0.362
    - _FlatSpecularEdgeSmoothness: 1
    - _FlatSpecularEnabled: 1
    - _FlatSpecularSize: 0.758
    - _FlatSpecularSmoothness: 0.5
    - _Flatness: 1
    - _FlatnessExtra: 0.71
    - _FlatnessSecondary: 1
    - _FlipbookMode: 0
    - _FresnelHighlights: 0
    - _GlossMapScale: 0.3
    - _Glossiness: 0
    - _GlossyReflections: 1
    - _GoochRampIntensity: 0.5
    - _GradientAngle: 51
    - _GradientCenterX: 17.84
    - _GradientCenterY: -4.63
    - _GradientEnabled: 1
    - _GradientEnd: 0.55
    - _GradientSize: 40.7
    - _GradientStart: 1.17
    - _HatchingMapScale: 1
    - _IndexOfRefraction: 0
    - _IndirectFade: 0.887
    - _Initialized: 0
    - _InputTab: 1
    - _Iridescence: 0
    - _IridescenceSize: 1
    - _IridescenceSmoothness: 0.5
    - _IridescenceThresholdOffset: 0
    - _Light: 0
    - _LightBands: 4
    - _LightBandsScale: 0.5
    - _LightContribution: 0
    - _LightFalloffSize: 1
    - _LightThreshold: 0.5
    - _LightTransmission: 0
    - _LightTransmissionDistortion: 0.25
    - _LightTransmissionIntensity: 1
    - _LightTransmissionSmoothness: 0.5
    - _LightTransmissionThresholdOffset: 0.25
    - _LightingEnabled: 0
    - _LightmapDirectionPitch: 360
    - _LightmapDirectionYaw: 356
    - _Metallic: 0
    - _Mode: 0
    - _NormalMapIntensity: 1
    - _OcclusionMapIntensity: 1
    - _OcclusionStrength: 1
    - _OptionsTab: 1
    - _Outline: 2
    - _OutlineData: 0
    - _OutlineDepthOffset: 0
    - _OutlineEnabled: 1
    - _OutlineFadeMax: 2
    - _OutlineFadeMin: 0.25
    - _OutlineNoise: -0.03
    - _OutlineScale: 1
    - _OutlineSize: 20
    - _OutlineTab: 1
    - _OutlineWidth: 1.5
    - _OverrideLightmapDir: 1
    - _OverrideShadows: 1
    - _OverrideShadowsEnabled: 1
    - _Parallax: 0.02
    - _QueueOffset: 0
    - _ReceiveShadows: 1
    - _RefractionDistortion: 0.1
    - _RefractionDistortionFade: 0.5
    - _RefractionDistortionMapScale: 1
    - _RefractionTab: 0
    - _RenderFace: 2
    - _RenderPriority: 0
    - _Rim: 1
    - _RimEnabled: 0
    - _RimSize: 4.9
    - _RimSmoothness: 0.5
    - _RimThresholdOffset: 0.25
    - _Roughness: 0.5
    - _Saturation: 3.88
    - _SecondaryColor: 1
    - _SecondaryColorEnabled: 1
    - _SelfShadingSize: 0.55
    - _SelfShadingSizeExtra: 0
    - _ShadowEdgeSize: 0.25
    - _ShadowEdgeSizeExtra: 0.41
    - _ShadowEdgeSmoothness: 0.071
    - _ShadowFalloff: 0.01
    - _SketchMapScale: 1
    - _Smoothness: 0.5
    - _SmoothnessTextureChannel: 1
    - _SoftParticlesEnabled: 0
    - _SoftParticlesFarFadeDistance: 1
    - _SoftParticlesNearFadeDistance: 0
    - _Specular: 0
    - _SpecularEnabled: 0
    - _SpecularHighlights: 1
    - _SpecularIntensity: 1
    - _SpecularSmoothness: 0
    - _SpecularThresholdOffset: 0.25
    - _SrcBlend: 1
    - _Stencil: 1
    - _StencilComp: 8
    - _StencilFail: 0
    - _StencilPass: 0
    - _StencilReadMask: 255
    - _StencilRef: 0
    - _StencilWriteMask: 255
    - _StencilZFail: 0
    - _StylizeTab: 1
    - _Surface: 0
    - _TextureBlendingMode: 0
    - _TextureImpact: 1
    - _ThresholdMapScale: 1
    - _UVSec: 0
    - _UnityShadowMode: 1
    - _UnityShadowOcclusion: 1
    - _UnityShadowPower: 1
    - _UnityShadowSharpness: 10
    - _VertexAnimation: 0
    - _VertexAnimationIntensity: 0.05
    - _VertexAnimationStutter: 0
    - _VertexColorsEnabled: 0
    - _Workflow: 0
    - _WrappedLighting: 1
    - _ZTest: 4
    - _ZWrite: 1
    m_Colors:
    - _AlbedoColor: {r: 0.8396226, g: 0.8396226, b: 0.8396226, a: 1}
    - _BaseColor: {r: 0.15686274, g: 0.9921474, b: 1, a: 1}
    - _CameraFadeParams: {r: 0, g: Infinity, b: 0, a: 0}
    - _Color: {r: 0.88235295, g: 0.22745098, b: 0.98039216, a: 1}
    - _ColorAddSubDiff: {r: -1, g: 1, b: 0, a: 0}
    - _ColorCelShadow: {r: 0.49056602, g: 0.34478462, b: 0.4476891, a: 1}
    - _ColorDim: {r: 0, g: 0, b: 0, a: 0.85}
    - _ColorDimCurve: {r: 0.85, g: 0.85, b: 0.85, a: 0.85}
    - _ColorDimExtra: {r: 1, g: 1, b: 1, a: 0.85}
    - _ColorDimSteps: {r: 0.4811321, g: 0.1764863, b: 0.111205064, a: 0.85}
    - _ColorGradient: {r: 0.9622642, g: 0.4221253, b: 0.73760456, a: 1}
    - _ColorSecondary: {r: 1, g: 0.55879205, b: 0, a: 1}
    - _ColorShadow: {r: 0.5, g: 0.5, b: 0.5, a: 1}
    - _ColorShadows: {r: 0.5471698, g: 0.37346402, b: 0.26584196, a: 1}
    - _DetailColor: {r: 1, g: 1, b: 1, a: 1}
    - _DissolveBorderColor: {r: 1, g: 1, b: 1, a: 1}
    - _EmissionColor: {r: 0.041963343, g: 0.38679248, b: 0.04962623, a: 1}
    - _FlatRimColor: {r: 0.31243324, g: 0.35552222, b: 0.5566038, a: 1}
    - _FlatSpecularColor: {r: 0, g: 0.94615364, b: 1, a: 1}
    - _GoochBrightColor: {r: 0.7924528, g: 0.7924528, b: 0.7924528, a: 1}
    - _GoochDarkColor: {r: 0, g: 0, b: 0, a: 1}
    - _IridescenceColor: {r: 1, g: 1, b: 1, a: 0.5}
    - _LightTransmissionColor: {r: 1, g: 0.65, b: 0, a: 1}
    - _LightmapDirection: {r: -0.000000012196593, g: 1, b: 0.00000017441964, a: 0}
    - _OutlineColor: {r: 0, g: 0, b: 0, a: 1}
    - _RimBrightColor: {r: 1, g: 1, b: 1, a: 1}
    - _RimColor: {r: 1, g: 1, b: 1, a: 1}
    - _RimDarkColor: {r: 0, g: 0, b: 0, a: 1}
    - _SoftParticleFadeParams: {r: 0, g: 0, b: 0, a: 0}
    - _SpecularColor: {r: 1, g: 1, b: 1, a: 1}
    - _UnityShadowColor: {r: 0.5754717, g: 0.5754717, b: 0.5754717, a: 1}
    - _VertexAnimationFrequency: {r: 2.5, g: 2.5, b: 2.5, a: 1}
  m_BuildTextureStacks: []
